## Interface: 30300
## Author Tsoukie
## Title: Tsoukie Party Tracker
## Version: 1.1.26
## Notes: Track selected cooldowns of party members.
## RequiredDeps: !!!ClassicAPI
## SavedVariables: TPTDB

Core\Load.xml